<?xml version="1.0" encoding="UTF-8"?>
<svg width="18px" height="18px" viewBox="0 0 18 18" version="1.1" xmlns="http://www.w3.org/2000/svg" xmlns:xlink="http://www.w3.org/1999/xlink">
    <!-- Generator: Sketch 46 (44423) - http://www.bohemiancoding.com/sketch -->
    <title>Facebook Copy 5-black</title>
    <desc>Created with Sketch.</desc>
    <defs></defs>
    <g id="Page-1" stroke="none" stroke-width="1" fill="none" fill-rule="evenodd">
        <g id="Lightbox-When-User-Clicks-APPLY-(Failed)---2-3" transform="translate(-329.000000, -1430.000000)">
            <g id="Group-20">
                <g id="Group-19" transform="translate(156.000000, 1415.000000)">
                    <g id="Group-9" transform="translate(0.000000, 12.000000)">
                        <g id="Group-8" transform="translate(106.000000, 0.000000)">
                            <g id="social-media---fb-copy" transform="translate(64.000000, 0.000000)"></g>
                        </g>
                    </g>
                </g>
            </g>
        </g>
    </g>
</svg>